342 74 3.52209901809692
280 117 3.14159274101257
311 159 0.463647603988647
248 163 2.85640096664429
310 181 3.33898830413818
312 189 0.291456788778305
244 204 2.73294162750244
255 205 0
255 211 2.76108622550964
347 208 0.732815086841583
403 208 0.710110306739807
287 229 3.14159274101257
278 254 3.14159274101257
363 241 0.837981224060059
372 252 4.03764820098877
281 268 3.24126124382019
401 262 3.86823511123657
260 274 5.81953763961792
227 319 5.6724591255188
247 319 6.08578968048096
375 319 3.60524034500122
410 312 0.19739556312561
432 316 3.24126124382019
237 335 6.18351650238037
340 327 3.87440776824951
224 341 0.0996686518192291
237 347 3.04192399978638
275 343 3.52209901809692
314 337 3.75231862068176
400 341 3.24126124382019
296 367 3.2786762714386
353 360 3.28193163871765
415 367 3.04192399978638
273 371 3.14159274101257
277 379 0
338 375 3.33898830413818
375 379 3.14159274101257
266 394 3.24126124382019
325 409 3.24126124382019
389 410 3.04192399978638
264 425 2.94419717788696
309 426 3.04192399978638
343 424 6.18351650238037
334 437 2.85013580322266
353 439 0
358 445 2.85013580322266
