279 159 0
281 153 3.24126124382019
303 174 0
310 195 3.44695568084717
286 239 3.33898830413818
321 259 3.24126124382019
370 287 3.43304944038391
312 290 0.438029021024704
364 292 0.19739556312561
214 304 2.11121582984924
247 318 5.81953763961792
329 311 3.60524034500122
373 320 0.896055400371552
236 342 5.00384569168091
296 342 3.52209901809692
288 368 0.0996686518192291
307 383 0.507098495960236
276 389 1.47112762928009
291 392 1.10714876651764
310 391 0.837981224060059
367 430 3.60524034500122
