170 119 5.55037021636963
363 134 0.19739556312561
376 131 3.92699074745178
148 156 5.60844421386719
221 157 3.24126124382019
381 146 4.03764820098877
255 176 3.24126124382019
244 208 0.610725939273834
305 222 3.75475382804871
399 212 4.17196941375732
261 228 3.75231862068176
155 250 1.95130264759064
301 244 0.894377291202545
232 258 3.33898830413818
301 278 4.33188247680664
181 288 1.67046499252319
311 288 0.785398185253143
228 304 1.67046499252319
240 316 1.03037679195404
241 304 0.896055400371552
254 310 0.960070371627808
379 347 3.68201208114624
374 375 3.68201208114624
297 404 4.03764820098877
353 413 3.43304944038391
273 417 0.674740970134735
258 445 3.60524034500122
