21 19 20
13 12 10
5 7 4
20 18 16
22 21 19
15 12 13
19 18 20
3 2 1
10 12 8
22 19 20
22 21 20
11 9 6
5 4 2
20 19 16
19 18 16
8 2 3
13 12 8
13 8 10
7 4 2
8 7 2
7 5 2
2 0 1
8 7 5
8 5 2
10 8 9
9 8 3
21 19 18
21 18 20
15 12 10
15 13 10
14 9 11
8 2 1
8 1 3
21 18 16
21 20 16
14 10 9
1 3 0
3 2 0
8 4 2
8 5 4
8 7 4
14 9 6
11 14 6
9 3 1
14 10 11
11 10 9
2 4 0
17 15 13
12 15 8
13 15 8
22 18 20
22 21 18
22 19 18
6 9 3
10 12 9
16 10 14
8 12 2
4 0 1
2 4 1
10 8 3
9 10 3
18 17 15
13 9 10
9 2 3
18 17 13
10 8 2
20 16 14
3 4 0
4 3 2
10 9 6
11 10 6
17 12 13
17 15 12
14 16 11
16 18 14
12 8 3
18 17 12
11 9 3
6 11 3
8 0 1
19 16 14
17 15 10
14 16 9
14 3 6
23 21 22
23 19 21
23 19 22
23 19 20
23 20 21
23 20 22
