17 15 16
16 14 11
15 13 16
16 13 14
11 14 12
16 13 11
13 14 11
16 11 12
16 14 12
15 14 16
15 13 14
15 13 11
16 15 11
17 15 11
17 16 11
17 15 13
17 13 11
17 13 16
23 24 22
13 12 11
13 14 12
16 17 14
17 15 14
6 8 3
12 11 9
21 17 18
9 8 6
12 14 9
13 20 14
17 16 18
21 15 17
15 20 14
15 20 13
21 15 18
8 5 3
12 16 9
21 15 16
21 17 16
21 16 18
22 20 15
6 3 2
19 20 13
22 19 20
22 19 13
10 7 4
23 22 15
23 15 21
19 20 14
13 19 14
12 8 9
6 9 3
9 8 3
19 20 15
12 9 6
4 7 1
22 19 14
1 2 0
23 22 21
23 24 15
24 22 15
8 5 6
6 5 3
18 12 10
11 8 9
24 22 17
24 15 17
23 24 17
23 24 21
18 7 10
22 24 20
11 9 6
4 2 1
6 8 2
8 3 2
18 17 10
7 2 1
4 7 2
9 5 3
9 5 6
9 5 8
21 18 10
10 12 7
23 22 20
18 16 10
7 6 4
9 6 2
10 6 7
4 2 0
4 0 1
3 0 2
18 4 10
10 4 1
10 7 1
7 6 1
6 2 1
6 2 0
3 5 2
10 12 4
7 0 1
4 3 0
10 2 4
3 2 1
3 0 1
