	101_1 => 24
              {257,22,6.11520147323608},
              {282,46,3.33898830413818},
              {261,62,0.204244449734688},
              {288,56,0.610725939273834},
              {231,66,2.60117316246033},
              {233,79,0},
              {337,75,4.03764820098877},
              {233,90,3.14159274101257},
              {272,89,3.52209901809692},
              {313,85,3.68201208114624},
              {291,111,3.43304944038391},
              {340,100,3.43304944038391},
              {270,116,3.04192399978638},
              {274,126,6.18351650238037},
              {335,123,3.43304944038391},
              {260,140,3.24126124382019},
              {318,158,3.24126124382019},
              {259,176,2.94419717788696},
              {302,176,2.85013580322266},
              {324,191,2.85013580322266},
              {327,180,6.18351650238037},
              {337,199,6.08578968048096},
              {347,203,2.94419717788696},
              {308,277,2.94419717788696}
			  
	101_3 => 23
              {351,158,3.60524034500122},
              {236,195,6.18351650238037},
              {292,205,3.24126124382019},
              {215,228,0},
              {249,245,3.14159274101257},
              {311,253,0},
              {316,270,3.27471876144409},
              {237,285,3.14159274101257},
              {318,282,0.0996686518192291},
              {345,280,0.560926795005798},
              {338,294,3.33898830413818},
              {252,304,3.04192399978638},
              {215,399,0.0996686518192291},
              {236,386,0.19739556312561},
              {253,396,0.291456788778305},
              {251,414,4.30172157287598},
              {304,414,3.59484052658081},
              {330,404,3.43304944038391},
              {227,428,0.19739556312561},
              {243,431,3.33898830413818},
              {335,421,3.33898830413818},
              {263,445,3.33898830413818},
              {275,441,0.0996686518192291}
			  
	102_1 => 14
              {276,97,3.43304944038391},
              {229,142,5.90267896652222},
              {213,166,1.67046499252319},
              {256,182,0.380506366491318},
              {280,180,3.52209901809692},
              {259,198,0.19739556312561},
              {272,204,0.674740970134735},
              {344,192,4.33188247680664},
              {256,222,1.47112762928009},
              {262,223,4.24874114990234},
              {332,208,0.837981224060059},
              {267,226,1.57079637050629},
              {299,269,0.747896373271942},
              {314,283,0.896055400371552}
			  
	102_7 => 28
              {279,87,0.19739556312561},
              {300,85,3.33898830413818},
              {316,116,3.52209901809692},
              {320,119,0.674740970134735},
              {322,128,3.60524034500122},
              {246,152,5.7427659034729},
              {259,144,2.46685171127319},
              {259,162,2.35619449615479},
              {272,179,5.90267896652222},
              {302,181,2.94419717788696},
              {255,199,1.57079637050629},
              {233,220,1.57079637050629},
              {241,223,4.9463586807251},
              {290,217,6.18351650238037},
              {322,210,3.60524034500122},
              {385,220,4.33188247680664},
              {318,238,0.540419518947601},
              {326,235,3.60524034500122},
              {242,247,1.57079637050629},
              {326,255,3.81633353233337},
              {370,240,1.19028997421265},
              {236,260,1.86225306987762},
              {281,260,4.9097843170166},
              {320,256,0.785398185253143},
              {323,271,0.785398185253143},
              {275,280,1.27933955192566},
              {294,298,1.03037679195404},
              {242,306,1.35591518878937}
			  
	103_1 => 28
              {245,21,5.90267896652222},
              {255,17,2.76108622550964},
              {211,40,2.46685171127319},
              {247,79,2.297438621521},
              {244,89,5.60844421386719},
              {275,84,5.99172830581665},
              {293,94,0.463647603988647},
              {372,106,1.03037679195404},
              {269,122,5.72407627105713},
              {283,112,2.85013580322266},
              {342,127,0.960070371627808},
              {288,148,1.47112762928009},
              {353,152,1.38612949848175},
              {226,167,5.25280857086182},
              {340,190,1.81946766376495},
              {356,189,1.47112762928009},
              {309,200,2.02404427528381},
              {376,201,1.41104972362518},
              {340,229,5.0928955078125},
              {240,248,5.6724591255188},
              {278,258,5.60844421386719},
              {350,264,5.90267896652222},
              {226,279,5.7427659034729},
              {309,287,5.90267896652222},
              {229,303,5.99172830581665},
              {271,288,6.08578968048096},
              {285,312,6.08578968048096},
              {342,304,5.81953763961792}
			  
	103_2 => 11
              {335,94,0.0996686518192291},
              {302,106,2.41495037078857},
              {332,110,6.18351650238037},
              {287,116,5.81953763961792},
              {291,169,2.24553728103638},
              {322,168,0},
              {287,180,5.55654287338257},
              {343,184,0.610725939273834},
              {319,232,1.86225306987762},
              {333,226,2.07789492607117},
              {334,236,1.57079637050629}
			  
	103_4 => 29
              {314,19,6.18351650238037},
              {266,65,6.08578968048096},
              {349,67,0},
              {335,105,0},
              {383,111,3.43304944038391},
              {285,127,5.90267896652222},
              {307,121,2.73294162750244},
              {323,123,6.18351650238037},
              {257,130,2.85013580322266},
              {224,191,2.5308666229248},
              {280,189,5.81953763961792},
              {288,176,2.5308666229248},
              {314,191,5.99172830581665},
              {302,220,5.81953763961792},
              {319,220,2.85013580322266},
              {331,208,0.380506366491318},
              {321,234,0.540419518947601},
              {335,231,3.52209901809692},
              {384,226,0.960070371627808},
              {322,245,1.47112762928009},
              {245,256,5.38123989105225},
              {341,295,2.03444385528564},
              {212,319,5.7427659034729},
              {262,329,5.7427659034729},
              {240,350,5.99172830581665},
              {299,343,5.90267896652222},
              {291,367,6.18351650238037},
              {331,367,5.99172830581665},
              {241,370,0}
			  
	104_1 => 28
              {221,39,5.38712978363037},
              {255,46,5.81953763961792},
              {197,61,5.32311487197876},
              {203,58,2.03444385528564},
              {221,51,5.49778699874878},
              {218,70,2.24553728103638},
              {365,79,1.27933955192566},
              {259,100,5.55654287338257},
              {299,96,1.10714876651764},
              {313,123,4.71238899230957},
              {265,132,1.95130264759064},
              {273,139,1.93411755561829},
              {298,136,4.6988787651062},
              {310,160,1.77901566028595},
              {239,189,5.17603635787964},
              {335,180,1.67046499252319},
              {247,193,1.86225306987762},
              {239,216,5.0928955078125},
              {254,209,5.17603635787964},
              {335,215,1.7681919336319},
              {278,255,5.49778699874878},
              {250,271,5.81953763961792},
              {292,271,5.81953763961792},
              {317,256,5.69518280029297},
              {332,262,5.81953763961792},
              {195,278,6.08578968048096},
              {229,283,6.18351650238037},
              {297,288,5.99172830581665}
			  
	104_2
              {303,179,5.87144804000854},
              {258,203,2.30361151695251},
              {262,193,5.44520425796509},
              {258,212,2.35619449615479},
              {299,217,5.6724591255188},
              {339,255,0.960070371627808},
              {335,258,2.94419717788696},
              {302,273,5.49778699874878},
              {319,272,2.85013580322266},
              {315,288,2.35619449615479},
              {356,292,4.66786432266235},
              {317,310,1.7681919336319},
              {333,307,1.57079637050629},
              {343,304,4.62083339691162},
              {310,335,1.86225306987762},
              {354,331,1.7681919336319},
              {285,359,5.0928955078125},
              {293,367,5.25280857086182},
              {321,399,5.25280857086182}
			  
	105_1 => 17
              {200,159,2.94419717788696},
              {301,158,0.909753143787384},
              {254,160,0.0996686518192291},
              {215,198,0},
              {264,194,0.726642370223999},
              {281,197,3.43304944038391},
              {203,220,5.72458600997925},
              {205,214,2.76108622550964},
              {324,209,0.785398185253143},
              {227,224,0.19739556312561},
              {193,251,6.08578968048096},
              {223,258,3.33898830413818},
              {259,271,4.10166311264038},
              {360,266,0.896055400371552},
              {216,280,1.19028997421265},
              {321,279,0.960070371627808},
              {237,301,1.57079637050629}
			  
	105_3 => 22
              {187,165,2.94419717788696},
              {235,173,0.0996686518192291},
              {321,162,0.610725939273834},
              {236,207,0.463647603988647},
              {185,223,2.94419717788696},
              {195,208,0},
              {259,214,3.68201208114624},
              {172,234,5.81953763961792},
              {198,237,0},
              {306,237,1.10714876651764},
              {163,268,5.81953763961792},
              {140,285,5.25280857086182},
              {191,285,3.33898830413818},
              {204,283,0.837981224060059},
              {215,285,4.24874114990234},
              {172,288,2.18152236938477},
              {172,297,1.86225306987762},
              {181,292,1.27933955192566},
              {187,288,0.960070371627808},
              {176,307,1.57079637050629},
              {197,312,4.51499319076538},
              {128,367,5.25280857086182}
			  
	105_6 => 26
              {310,158,3.68201208114624},
              {320,156,3.81633353233337},
              {192,170,3.43304944038391},
              {315,171,0.785398185253143},
              {316,160,0.674740970134735},
              {192,218,0.463647603988647},
              {168,236,6.18351650238037},
              {182,228,3.14159274101257},
              {233,226,0.896055400371552},
              {242,230,3.87440776824951},
              {324,230,0.785398185253143},
              {291,252,0.855449020862579},
              {144,271,5.99172830581665},
              {160,272,0.0996686518192291},
              {184,280,3.68201208114624},
              {164,290,1.03037679195404},
              {174,299,1.03037679195404},
              {187,288,0.960070371627808},
              {196,303,4.24874114990234},
              {207,296,0.960070371627808},
              {199,314,1.27933955192566},
              {323,309,1.19028997421265},
              {194,324,1.57079637050629},
              {178,359,1.86225306987762},
              {272,379,4.03764820098877},
              {310,377,3.52209901809692}
			  
	106_1 => 16
              {284,36,0.540419518947601},
              {337,45,0.610725939273834},
              {342,42,3.68201208114624},
              {298,53,3.68201208114624},
              {341,72,0.850122928619385},
              {192,88,1.86225306987762},
              {272,94,2.76108622550964},
              {339,103,4.33188247680664},
              {219,117,1.57079637050629},
              {256,126,5.49778699874878},
              {347,115,0.886482536792755},
              {287,139,0.819089412689209},
              {274,149,1.27933955192566},
              {255,239,0.837981224060059},
              {339,228,3.98574662208557},
              {399,235,3.43304944038391}
			  
	106_3 => 21
              {279,159,0},
              {281,153,3.24126124382019},
              {303,174,0},
              {310,195,3.44695568084717},
              {286,239,3.33898830413818},
              {321,259,3.24126124382019},
              {370,287,3.43304944038391},
              {312,290,0.438029021024704},
              {364,292,0.19739556312561},
              {214,304,2.11121582984924},
              {247,318,5.81953763961792},
              {329,311,3.60524034500122},
              {373,320,0.896055400371552},
              {236,342,5.00384569168091},
              {296,342,3.52209901809692},
              {288,368,0.0996686518192291},
              {307,383,0.507098495960236},
              {276,389,1.47112762928009},
              {291,392,1.10714876651764},
              {310,391,0.837981224060059},
              {367,430,3.60524034500122}
			  
	106_4 => 22
              {273,41,0.359414994716644},
              {282,56,3.23314809799194},
              {259,97,3.11221480369568},
              {298,105,3.29256820678711},
              {287,140,0.380506366491318},
              {300,155,3.68201208114624},
              {246,174,5.90267896652222},
              {177,191,5.32311487197876},
              {214,179,2.18152236938477},
              {224,180,5.55654287338257},
              {238,182,2.46685171127319},
              {348,181,0.960070371627808},
              {189,199,1.86225306987762},
              {275,198,3.44436502456665},
              {338,212,4.51499319076538},
              {210,227,1.86225306987762},
              {249,233,5.22757720947266},
              {262,253,1.67046499252319},
              {288,246,0.896055400371552},
              {247,350,0.896055400371552},
              {328,347,4.17196941375732},
              {257,374,3.97957396507263}
			  
	106_5 => 24
              {403,77,3.78697824478149},
              {276,82,3.04192399978638},
              {362,100,3.68201208114624},
              {232,122,2.46685171127319},
              {244,140,5.6724591255188},
              {385,132,3.81633353233337},
              {231,149,2.46685171127319},
              {262,152,2.46685171127319},
              {267,190,2.11121582984924},
              {328,190,3.68201208114624},
              {369,178,4.33188247680664},
              {315,204,3.24126124382019},
              {293,211,5.6724591255188},
              {303,215,2.94419717788696},
              {310,211,6.08578968048096},
              {394,218,1.42889928817749},
              {295,234,2.11121582984924},
              {310,224,1.37340080738068},
              {297,242,1.7681919336319},
              {316,246,1.27933955192566},
              {376,243,4.81205749511719},
              {378,254,1.37340080738068},
              {236,313,1.27933955192566},
              {304,350,4.81205749511719}
			  
	106_6 => 15
              {231,130,3.24126124382019},
              {264,149,3.33898830413818},
              {261,177,0.291456788778305},
              {271,198,3.68201208114624},
              {164,216,1.86225306987762},
              {317,220,0.732815086841583},
              {245,233,3.33898830413818},
              {310,250,4.33188247680664},
              {191,258,1.7681919336319},
              {239,256,2.24553728103638},
              {321,261,0.837981224060059},
              {222,281,1.47112762928009},
              {260,285,0.855449020862579},
              {239,290,1.57079637050629},
              {250,289,0.960070371627808}
			  
	107_2 => 24
              {294,148,2.76108622550964},
              {309,159,6.18351650238037},
              {247,161,2.40877747535706},
              {353,175,0.610725939273834},
              {270,191,2.11121582984924},
              {275,194,5.55037021636963},
              {305,199,0.0996686518192291},
              {374,202,4.25914096832275},
              {263,211,2.03444385528564},
              {332,208,0.610725939273834},
              {383,210,1.19028997421265},
              {245,233,5.4170994758606},
              {295,228,2.03444385528564},
              {316,224,2.11121582984924},
              {319,233,1.7681919336319},
              {330,230,1.37340080738068},
              {268,245,2.03444385528564},
              {325,243,1.7681919336319},
              {304,287,5.38712978363037},
              {316,284,2.18152236938477},
              {336,286,1.7681919336319},
              {235,337,5.49778699874878},
              {242,356,2.60117316246033},
              {247,353,5.99172830581665}

	107_7 => 22
              {273,27,5.99172830581665},
              {296,22,3.04192399978638},
              {300,25,6.08578968048096},
              {312,31,6.08578968048096},
              {253,34,3.33898830413818},
              {278,45,2.85013580322266},
              {292,35,2.94419717788696},
              {292,44,5.99172830581665},
              {329,122,0},
              {244,156,5.7427659034729},
              {277,174,2.76108622550964},
              {235,187,2.28614354133606},
              {293,184,6.18351650238037},
              {368,188,0.610725939273834},
              {384,190,0.540419518947601},
              {337,199,0.380506366491318},
              {400,208,0.785398185253143},
              {373,236,1.06369781494141},
              {397,227,0.896055400371552},
              {369,257,4.81205749511719},
              {357,282,4.9097843170166},
              {363,285,1.7681919336319}
			  
	108_2 => 16
              {293,124,2.60117316246033},
              {311,141,5.90267896652222},
              {373,128,0.291456788778305},
              {365,160,3.04192399978638},
              {269,189,5.38712978363037},
              {321,213,5.7427659034729},
              {333,228,0},
              {351,244,3.24126124382019},
              {350,266,3.52209901809692},
              {399,261,4.61272048950195},
              {334,279,2.46685171127319},
              {264,291,5.0928955078125},
              {375,306,1.47112762928009},
              {321,324,2.03444385528564},
              {276,340,1.95130264759064},
              {330,350,1.86225306987762}
			  
	108_5 => 27
              {165,132,5.38712978363037},
              {239,128,6.08578968048096},
              {175,145,2.05342221260071},
              {284,154,0},
              {194,162,5.44520425796509},
              {247,163,2.60363817214966},
              {234,190,5.63779973983765},
              {171,231,4.9097843170166},
              {230,227,5.0928955078125},
              {243,231,5.44520425796509},
              {275,236,0.294001311063766},
              {301,232,3.60524034500122},
              {256,245,6.18351650238037},
              {274,246,3.24126124382019},
              {309,242,1.10714876651764},
              {271,286,1.57079637050629},
              {317,286,1.35042095184326},
              {366,315,4.59777307510376},
              {211,321,4.71238899230957},
              {282,326,1.47112762928009},
              {301,342,1.62792348861694},
              {182,359,1.7681919336319},
              {242,360,1.37340080738068},
              {332,372,1.47112762928009},
              {257,412,5.17603635787964},
              {277,405,2.11121582984924},
              {266,427,5.17603635787964}