257 22 6.11520147323608
282 46 3.33898830413818
261 62 0.204244449734688
288 56 0.610725939273834
231 66 2.60117316246033
233 79 0
337 75 4.03764820098877
233 90 3.14159274101257
272 89 3.52209901809692
313 85 3.68201208114624
291 111 3.43304944038391
340 100 3.43304944038391
270 116 3.04192399978638
274 126 6.18351650238037
335 123 3.43304944038391
260 140 3.24126124382019
318 158 3.24126124382019
259 176 2.94419717788696
302 176 2.85013580322266
324 191 2.85013580322266
327 180 6.18351650238037
337 199 6.08578968048096
347 203 2.94419717788696
308 277 2.94419717788696
