303 179 5.87144804000854
258 203 2.30361151695251
262 193 5.44520425796509
258 212 2.35619449615479
299 217 5.6724591255188
339 255 0.960070371627808
335 258 2.94419717788696
302 273 5.49778699874878
319 272 2.85013580322266
315 288 2.35619449615479
356 292 4.66786432266235
317 310 1.7681919336319
333 307 1.57079637050629
343 304 4.62083339691162
310 335 1.86225306987762
354 331 1.7681919336319
285 359 5.0928955078125
293 367 5.25280857086182
321 399 5.25280857086182
