231 130 3.24126124382019
264 149 3.33898830413818
261 177 0.291456788778305
271 198 3.68201208114624
164 216 1.86225306987762
317 220 0.732815086841583
245 233 3.33898830413818
310 250 4.33188247680664
191 258 1.7681919336319
239 256 2.24553728103638
321 261 0.837981224060059
222 281 1.47112762928009
260 285 0.855449020862579
239 290 1.57079637050629
250 289 0.960070371627808
