236 129 3.52209901809692
256 154 3.43304944038391
250 189 0.463647603988647
399 191 3.75231862068176
162 210 2.03444385528564
258 216 3.98574662208557
153 231 1.7681919336319
156 225 5.00384569168091
302 239 0.837981224060059
153 254 1.67046499252319
155 246 5.0928955078125
228 246 3.60524034500122
185 271 2.09139966964722
198 256 5.81953763961792
223 265 2.85640096664429
293 267 4.33188247680664
369 262 0.674740970134735
223 280 2.5308666229248
225 274 0.610725939273834
302 279 0.837981224060059
369 272 4.24874114990234
225 300 1.22793161869049
244 299 0.896055400371552
217 307 1.37340080738068
319 335 4.24874114990234
373 336 3.52209901809692
397 399 3.04192399978638
