294 148 2.76108622550964
309 159 6.18351650238037
247 161 2.40877747535706
353 175 0.610725939273834
270 191 2.11121582984924
275 194 5.55037021636963
305 199 0.0996686518192291
374 202 4.25914096832275
263 211 2.03444385528564
332 208 0.610725939273834
383 210 1.19028997421265
245 233 5.4170994758606
295 228 2.03444385528564
316 224 2.11121582984924
319 233 1.7681919336319
330 230 1.37340080738068
268 245 2.03444385528564
325 243 1.7681919336319
304 287 5.38712978363037
316 284 2.18152236938477
336 286 1.7681919336319
235 337 5.49778699874878
242 356 2.60117316246033
247 353 5.99172830581665
