11 8 9
11 9 6
9 8 6
11 8 6
8 5 6
9 5 6
9 8 5
6 5 3
6 3 4
6 5 4
5 3 4
11 5 6
11 8 5
11 9 5
8 3 6
8 3 5
5 9 3
9 3 4
6 9 4
9 5 4
3 2 1
8 3 4
3 5 2
12 9 11
10 6 4
3 5 1
5 2 1
4 3 1
4 5 1
12 8 9
12 8 11
10 4 7
11 6 10
10 11 4
4 3 2
4 2 1
5 2 4
7 6 4
10 6 7
13 12 11
13 12 10
13 11 10
13 9 10
13 12 9
13 9 11
4 1 0
11 7 10
11 4 7
13 12 8
11 6 7
3 1 0
4 3 0
2 1 0
4 2 0
3 2 0
