4 0 1
3 0 4
3 4 1
3 0 1
20 18 19
20 22 18
16 14 17
18 17 19
16 15 14
18 16 17
17 15 14
16 15 17
15 13 14
18 17 14
18 16 14
15 12 13
19 17 14
19 18 14
20 17 18
20 17 19
6 5 7
16 13 14
16 15 13
22 18 19
20 22 19
17 13 14
17 15 13
20 22 16
22 16 18
22 16 19
19 16 17
18 16 15
20 22 17
22 17 18
19 20 14
15 12 14
14 12 13
16 15 12
16 12 14
16 12 13
13 12 6
13 6 7
23 22 20
8 7 5
8 9 5
12 6 7
22 23 18
23 18 20
5 7 2
9 7 8
9 7 5
22 23 16
23 16 20
23 16 18
13 7 5
13 6 5
11 8 9
6 7 8
6 5 8
8 7 2
8 5 2
5 6 2
7 6 2
8 6 2
10 3 4
12 6 5
10 0 4
10 0 3
10 4 1
10 3 1
10 0 1
21 11 10
11 9 10
10 11 3
13 7 8
25 24 21
11 8 10
10 11 4
10 11 0
24 23 22
11 5 8
9 11 5
11 7 8
11 7 9
21 9 11
21 8 11
21 25 11
25 24 22
25 22 11
25 24 11
21 24 11
25 22 21
24 22 21
25 24 23
21 25 10
24 23 21
21 24 10
