18 17 14
10 6 7
7 6 4
10 9 6
21 17 18
21 23 17
18 14 11
23 21 22
22 23 17
22 21 17
10 9 7
9 6 7
22 17 18
22 21 18
14 13 11
18 13 14
18 13 11
23 17 18
21 23 18
22 23 18
18 17 11
17 14 11
17 13 11
14 17 13
21 17 14
21 14 18
10 7 4
10 6 4
14 12 13
12 9 10
19 15 8
18 12 13
23 14 17
13 12 10
9 7 4
10 9 4
9 6 4
12 9 13
12 13 11
12 9 6
21 18 11
12 9 7
14 11 5
11 2 5
22 15 19
2 0 1
15 5 8
5 2 1
20 19 16
14 12 10
16 19 8
14 12 9
8 5 2
24 15 19
25 20 16
8 11 5
20 19 8
16 20 8
16 15 8
19 5 8
19 15 5
24 19 20
25 24 20
24 15 20
5 14 2
14 5 8
24 22 19
19 22 8
15 22 8
22 5 15
20 16 3
25 24 16
5 0 1
5 2 0
25 19 20
25 19 16
25 24 19
5 11 1
11 1 2
24 19 8
26 24 25
25 24 15
16 8 3
20 8 3
4 0 1
5 4 0
2 4 0
11 0 2
11 0 1
16 8 5
25 8 20
25 8 16
26 25 20
26 24 20
15 8 3
20 15 3
16 15 3
26 25 16
26 24 16
26 20 16
