13 12 10
26 24 25
13 10 11
12 8 9
12 9 10
13 9 10
13 12 9
14 10 11
14 13 10
14 13 11
4 2 0
9 8 6
15 12 13
12 8 10
10 9 8
13 12 11
12 10 11
13 12 8
13 8 9
3 5 1
6 4 5
14 12 11
19 15 16
16 11 14
5 4 1
25 24 22
13 9 11
10 9 11
16 15 14
20 19 16
16 15 13
16 13 14
12 8 6
22 21 18
6 5 3
10 8 6
22 19 20
16 15 11
6 1 5
6 1 3
6 4 1
20 19 15
16 10 14
4 2 1
8 6 5
25 20 23
20 23 19
9 6 5
23 20 17
17 20 16
25 26 22
26 24 22
19 18 15
22 18 19
9 7 8
16 15 12
4 0 1
2 0 1
6 4 2
6 2 1
5 4 2
8 4 6
8 7 4
9 7 6
6 7 4
8 7 6
25 22 19
23 25 19
22 15 19
22 18 15
11 6 3
19 15 13
24 22 20
25 24 20
9 7 4
9 4 6
23 19 17
17 19 16
20 19 17
25 24 23
15 19 12
26 25 23
26 24 23
23 20 16
17 23 16
11 5 3
5 2 0
5 4 0
5 0 1
19 14 16
24 22 19
6 2 0
6 4 0
3 4 1
5 4 3
23 22 20
26 22 23
25 22 23
24 21 22
26 24 20
19 11 16
24 21 18
24 18 22
24 21 19
22 21 19
21 18 19
22 16 19
20 22 16
25 18 22
21 18 15
11 1 3
23 25 17
