251	50	1	6.21674140677334
281	55	1	0.403125838354849
292	85	1	3.74355341503647
299	93	3	0.578273983797169
209	94	3	2.69175846038977
240	98	1	3.18653847810046
122	108	1	2.19958223373304
105	137	1	5.30399662055914
314	139	1	4.04660516683132
249	151	1	3.48914294922170
176	168	3	2.14891163355533
227	176	1	6.07086074652409
328	199	1	4.30318954089901
226	204	3	5.14351469279369
110	206	1	5.21627233889539
238	214	3	4.64230963220129
114	230	1	5.19761526340810
212	234	3	5.01879611831425
95	236	1	2.04056464972153
286	242	1	4.51379255238252
169	252	1	5.13270624661172
250	257	3	4.95356164714019
193	258	3	5.07171205369958
269	263	3	4.92779505267880
316	270	3	4.72441751461017
271	272	1	1.82172261797882
278	276	3	4.95966066425308
160	277	1	1.97350615547664
205	287	1	5.10193463357047
300	288	1	4.72565992296160
223	296	1	2.07359393509848
199	302	1	2.09651444781651
270	316	1	2.09648141618759
113	319	3	2.35907563175554
311	319	1	4.81761594517997
278	327	1	5.27177292971102
279	346	3	2.26432017631585
