181	20	1	0.308232316701096
105	42	1	2.85291341372592
158	80	1	3.39122274699637
197	80	1	0.592899041706637
275	114	1	1.18775794879228
146	116	1	3.47900270370461
174	125	3	3.95677140246294
164	127	1	0.660040351718477
257	132	1	1.08703966601920
160	138	1	3.86394749306261
142	140	1	3.66606932615412
99	144	1	2.41066994377627
235	147	3	4.25950663790271
153	149	1	0.764807398125777
136	152	1	0.330252443929015
271	153	3	1.35570390727304
186	161	1	1.12016090164274
78	174	1	2.25060580132326
95	175	1	2.49962660795770
113	175	3	2.76884048708883
172	176	1	4.37823453946500
260	176	1	4.48165432524798
198	180	3	4.47635601929074
107	190	3	2.82540362768682
253	203	3	1.39792259912202
101	206	3	2.54203333875047
141	214	1	1.38839531269477
106	219	3	5.77191219807146
113	221	1	5.26481187355936
121	221	3	4.36819104206389
95	229	3	2.30075235726508
135	241	3	1.71359916003155
110	245	3	5.12507538003156
194	249	1	4.76753050742694
221	249	1	4.62307108179350
183	265	3	1.72982804497026
230	281	3	4.78604963036659
128	282	1	2.23662791070433
271	291	1	4.16892069157863
203	301	1	2.15181810735259
237	303	1	4.75880537034842
76	305	1	2.71906945929753
162	305	1	5.37094093293455
266	314	3	0.675258013161067
249	315	1	2.70416591103842
103	319	3	2.73737715815593
57	323	3	3.28195323854745
238	324	3	2.62723444860825
133	330	1	2.55500493613654
166	330	1	2.48861349628334
220	333	3	2.57332811510147
73	341	3	3.06334054680053
181	341	1	2.57019188628545
149	342	1	2.68788707486807
208	343	3	2.59492679315891
239	343	1	2.90470683415682
110	344	3	3.07257152517760
