351   158   3.60524034500122
236   195   6.18351650238037
292   205   3.24126124382019
215   228   0
249   245   3.14159274101257
311   253   0
316   270   3.27471876144409
237   285   3.14159274101257
318   282   0.0996686518192291
345   280   0.560926795005798
338   294   3.33898830413818
252   304   3.04192399978638
215   399   0.0996686518192291
236   386   0.19739556312561
253   396   0.291456788778305
251   414   4.30172157287598
304   414   3.59484052658081
330   404   3.43304944038391
227   428   0.19739556312561
243   431   3.33898830413818
335   421   3.33898830413818
263   445   3.33898830413818
275   441   0.0996686518192291
