7	12	13
5	7	2
28	27	29
23	21	27
4	6	3
27	18	23
9	7	5
2	1	5
14	9	5
4	3	1
23	14	21
20	24	19
15	10	13
3	6	8
10	3	8
1	2	4
19	13	20
8	6	13
19	15	13
13	10	8
15	3	10
29	17	19
29	15	17
22	25	24
28	19	24
17	15	19
19	28	29
26	25	27
24	26	28
7	4	2
22	24	20
27	25	18
20	13	12
24	25	26
26	27	28
25	22	18
23	18	16
22	20	12
23	16	14
7	13	6
16	9	14
11	18	12
16	18	11
18	22	12
9	11	7
9	16	11
12	7	11
6	4	7
5	21	14
