15	14	10
30	28	34
31	16	21
22	24	20
32	35	33
14	13	10
18	19	20
22	19	17
6	4	5
17	12	15
5	4	2
6	7	4
13	12	9
1	4	7
3	11	16
7	6	9
30	29	22
21	16	18
11	18	16
11	17	18
22	20	19
21	18	20
31	27	33
31	21	24
27	32	33
27	25	32
32	26	35
24	21	20
26	29	35
26	24	22
25	24	26
27	31	24
32	25	26
27	24	25
22	17	23
19	18	17
30	22	23
29	26	22
29	30	35
23	28	30
30	34	35
28	23	34
15	13	14
9	6	10
17	15	23
17	11	12
23	10	5
23	15	10
15	12	13
11	3	7
13	9	10
8	7	9
11	7	8
3	1	7
12	8	9
12	11	8
2	4	1
10	6	5
